<?xml version="1.0" encoding="UTF-8"?>
<!DOCTYPE svg PUBLIC "-//W3C//DTD SVG 1.1//EN" "http://www.w3.org/Graphics/SVG/1.1/DTD/svg11.dtd">
<svg version="1.1" xmlns="http://www.w3.org/2000/svg" xmlns:xlink="http://www.w3.org/1999/xlink" x="0" y="0" width="1374" height="459" viewBox="0, 0, 1374, 459">
  <defs>
    <clipPath id="Clip_1">
      <path d="M0.18,1.389 L1372.497,1.389 L1372.497,459 L0.18,459 z"/>
    </clipPath>
    <clipPath id="Clip_2">
      <path d="M0.18,1.389 L1372.497,1.389 L1372.497,459 L0.18,459 z"/>
    </clipPath>
  </defs>
  <g id="Layer_1">
    <path d="M47.178,204.258 C47.178,204.258 77.37,196.713 102.528,191.682 C127.689,186.648 155.364,189.165 175.491,196.713 C195.618,204.258 215.745,201.744 228.327,199.227 C240.906,196.713 271.095,209.292 281.16,211.809 C291.225,214.323 326.448,229.419 326.448,229.419 C326.448,229.419 193.104,242.001 160.395,236.967 C127.689,231.936 137.751,231.936 115.11,231.936 C92.466,231.936 77.37,214.323 47.178,204.258" fill="#C7E7F1"/>
    <g clip-path="url(#Clip_1)">
      <path d="M399.411,101.106 C399.411,101.106 495.015,80.979 530.241,86.013 C565.464,91.044 575.526,98.589 598.17,98.589 C620.814,98.589 651.003,98.592 671.13,101.106 C691.263,103.623 698.805,108.654 706.35,111.171 C713.901,113.688 736.545,121.233 736.545,121.233 C736.545,121.233 683.712,136.329 630.876,133.815 C578.043,131.298 530.241,121.233 515.145,121.233 C500.049,121.233 482.436,128.781 459.792,126.267 C437.148,123.75 399.411,101.106 399.411,101.106" fill="#C7E7F1"/>
      <path d="M774.447,18.606 C774.447,18.606 870.057,-1.521 905.277,3.513 C940.503,8.544 950.562,16.089 973.209,16.089 C995.85,16.089 1026.045,16.092 1046.172,18.606 C1066.299,21.123 1073.841,26.154 1081.392,28.671 C1088.94,31.188 1111.584,38.733 1111.584,38.733 C1111.584,38.733 1058.751,53.829 1005.918,51.315 C953.079,48.798 905.28,38.733 890.184,38.733 C875.085,38.733 857.475,46.281 834.828,43.767 C812.187,41.25 774.447,18.606 774.447,18.606" fill="#C7E7F1"/>
      <path d="M1022.316,140.127 C1022.316,140.127 1047.477,130.065 1070.121,132.579 C1092.765,135.096 1125.468,140.127 1143.081,145.158 C1160.694,150.192 1188.369,162.771 1203.465,165.288 C1218.564,167.802 1241.202,165.285 1256.301,167.802 C1271.397,170.319 1283.976,177.867 1291.524,180.384 C1299.069,182.898 1246.236,190.446 1200.948,187.932 C1155.663,185.415 1122.957,182.898 1105.344,185.415 C1087.731,187.932 951.87,157.74 951.87,157.74 L1022.316,140.127" fill="#C7E7F1"/>
      <path d="M313.518,8.145 C313.518,8.145 334.905,-0.408 354.153,1.731 C373.398,3.87 401.196,8.145 416.169,12.423 C431.139,16.701 454.662,27.393 467.496,29.532 C480.327,31.671 499.572,29.529 512.403,31.671 C525.237,33.81 535.929,40.224 542.343,42.363 C548.757,44.502 503.85,50.919 465.357,48.78 C426.861,46.641 399.063,44.502 384.093,46.641 C369.12,48.78 253.638,23.115 253.638,23.115 L313.518,8.145" fill="#C7E7F1"/>
    </g>
    <path d="M1158.081,277.221 C1158.081,277.221 1218.468,264.642 1233.564,267.159 C1246.446,269.307 1277.121,279.393 1304.007,284.769 C1316.586,287.286 1279.197,297.75 1286.748,297.75 C1294.299,297.75 1158.081,277.221 1158.081,277.221" fill="#C7E7F1"/>
    <g clip-path="url(#Clip_2)">
      <path d="M164.334,127.221 C164.334,127.221 224.721,114.642 239.814,117.159 C252.699,119.307 283.374,129.39 310.26,134.769 C322.839,137.286 285.45,147.75 293.001,147.75 C300.552,147.75 164.334,127.221 164.334,127.221" fill="#C7E7F1"/>
      <path d="M-0,444 C-0,444 224.073,219.354 274.392,138.846 C274.392,138.846 304.584,116.202 322.194,128.781 C339.807,141.363 470.634,186.648 500.826,196.713 C531.018,206.775 586.371,219.357 619.077,201.744 C651.783,184.134 683.064,173.028 737.322,148.911 C805.254,118.719 853.056,68.397 890.796,75.948 C890.796,75.948 913.44,68.4 941.115,78.462 C968.79,88.527 1041.75,133.815 1071.942,161.49 C1102.137,189.165 1372.497,459 1372.497,459 C1372.497,459 1283.283,438.246 1235.481,425.664 C1187.682,413.085 1158.663,414.411 1144.908,428.178 C1131.153,441.948 1046.784,403.017 993.948,430.695 C941.115,458.373 810.285,458.373 770.031,450.825 C729.777,443.274 656.814,430.698 614.043,433.212 C571.275,435.726 437.928,445.791 369.999,418.116 C302.067,390.438 184.032,423.648 151.113,423.147 C118.191,422.646 -0,444 -0,444" fill="#AABED8"/>
    </g>
    <path d="M296.256,146.394 L218.262,234.45 L298.773,169.038 L289.125,238.611 L311.352,184.134 L333.996,239.484 L331.5,184.752 C331.5,184.752 406.959,211.809 427.086,221.874 C447.213,231.936 471.03,216.03 483.024,222.726 C495.015,229.419 522.69,226.905 522.69,226.905 L391.863,189.165 L368.202,168.861 C368.202,168.861 316.383,133.815 296.256,146.394" fill="#FFFFFE"/>
    <path d="M711.198,176.532 C711.198,176.532 837.18,106.137 852.276,98.589 C867.372,91.044 897.564,86.013 897.564,86.013 C897.564,86.013 882.468,96.072 837.183,126.267 C791.895,156.456 711.198,176.532 711.198,176.532" fill="#FFFFFE"/>
    <path d="M917.688,101.106 C917.688,101.106 807.093,170.112 790.689,195.993 C774.282,221.871 766.734,229.419 766.734,229.419 L900.078,146.394 C900.078,146.394 857.31,242.001 867.372,236.967 C877.437,231.936 920.205,176.583 920.205,176.583 L892.533,282.255 C892.533,282.255 935.301,196.713 940.332,184.134 C945.366,171.552 940.332,80.979 917.688,101.106" fill="#FFFFFE"/>
    <path d="M940.332,98.589 C940.332,98.589 965.493,151.425 978.072,179.1 C990.654,206.775 1008.264,206.775 1008.264,206.775 L973.041,121.233 L1061.1,184.134 C1061.1,184.134 1010.778,103.623 940.332,98.589" fill="#FFFFFE"/>
  </g>
</svg>
